{
	"info": {
		"_postman_id": "62a65aca-5742-42d6-b483-ab71fc599050",
		"name": "CCA",
		"schema": "https://schema.getpostman.com/json/collection/v2.1.0/collection.json"
	},
	"item": [
		{
			"name": "localhost:5000/api/1.0/products",
			"request": {
				"method": "GET",
				"header": [],
				"body": {},
				"url": {
					"raw": "localhost:5000/api/1.0/products",
					"host": [
						"localhost"
					],
					"port": "5000",
					"path": [
						"api",
						"1.0",
						"products"
					]
				}
			},
			"response": []
		},
		{
			"name": "localhost:5000/api/1.0/baskets",
			"request": {
				"method": "POST",
				"header": [
					{
						"key": "Authorization",
						"value": "Bearer eyJhbGciOiJSUzI1NiIsInR5cCI6IkpXVCJ9.eyJ1bmlxdWVfbmFtZSI6Ijk3Mzk4MjZlLTdhZmItNDdjNi1hZmRiLTdlZjM4YzU2YTQ3ZCIsIm5iZiI6MTUyMTUzNDQ1NywiZXhwIjoxNTIxNTM1NjU3LCJpYXQiOjE1MjE1MzQ0NTcsImlzcyI6Imlzc3VlciIsImF1ZCI6ImF1ZGllbmNlIn0.d8vtLDfJaBNsKV1dg5fO0K3raaY7n_bPuqrrFO7JiV0WRPdoGVXsE6pB9pWOVmB0JKm-QnJD-iuJE9Y4V6TR_1oVu0ETdwVFQGtq1-c5vRmUTkHgJN24ArhY-PKqonz0hzciQOXNcwtgmM8D9sldMpRv-4uKa2g_jZasn9w3cgkL8MHX92B3WfZs7ZNEKGBAKNadVqqSF1B5qAtcnFx8jgYjQd9SS0jyX_JKgHilzqRwGcLqrzD6Vt6PPhvPqO71EJwzumtYaSXISOAOlwWn5nDDOGObhnqyPzB4hAZ4JRghpDWzLNCi4T1dbC9MzxBL0xJ2pRg6MFYXPgH4gRJJ9g"
					}
				],
				"body": {},
				"url": {
					"raw": "localhost:5000/api/1.0/baskets",
					"host": [
						"localhost"
					],
					"port": "5000",
					"path": [
						"api",
						"1.0",
						"baskets"
					]
				}
			},
			"response": []
		},
		{
			"name": "localhost:5000/api/1.0/baskets/1",
			"request": {
				"method": "GET",
				"header": [
					{
						"key": "Authorization",
						"value": "Bearer eyJhbGciOiJSUzI1NiIsInR5cCI6IkpXVCJ9.eyJ1bmlxdWVfbmFtZSI6Ijk3Mzk4MjZlLTdhZmItNDdjNi1hZmRiLTdlZjM4YzU2YTQ3ZCIsIm5iZiI6MTUyMTUzNDQ1NywiZXhwIjoxNTIxNTM1NjU3LCJpYXQiOjE1MjE1MzQ0NTcsImlzcyI6Imlzc3VlciIsImF1ZCI6ImF1ZGllbmNlIn0.d8vtLDfJaBNsKV1dg5fO0K3raaY7n_bPuqrrFO7JiV0WRPdoGVXsE6pB9pWOVmB0JKm-QnJD-iuJE9Y4V6TR_1oVu0ETdwVFQGtq1-c5vRmUTkHgJN24ArhY-PKqonz0hzciQOXNcwtgmM8D9sldMpRv-4uKa2g_jZasn9w3cgkL8MHX92B3WfZs7ZNEKGBAKNadVqqSF1B5qAtcnFx8jgYjQd9SS0jyX_JKgHilzqRwGcLqrzD6Vt6PPhvPqO71EJwzumtYaSXISOAOlwWn5nDDOGObhnqyPzB4hAZ4JRghpDWzLNCi4T1dbC9MzxBL0xJ2pRg6MFYXPgH4gRJJ9g"
					}
				],
				"body": {},
				"url": {
					"raw": "localhost:5000/api/1.0/baskets/1",
					"host": [
						"localhost"
					],
					"port": "5000",
					"path": [
						"api",
						"1.0",
						"baskets",
						"1"
					]
				}
			},
			"response": []
		},
		{
			"name": "localhost:5000/api/1.0/baskets/1",
			"request": {
				"method": "PUT",
				"header": [
					{
						"key": "Content-Type",
						"value": "application/json"
					},
					{
						"key": "Authorization",
						"value": "Bearer eyJhbGciOiJSUzI1NiIsInR5cCI6IkpXVCJ9.eyJ1bmlxdWVfbmFtZSI6Ijk3Mzk4MjZlLTdhZmItNDdjNi1hZmRiLTdlZjM4YzU2YTQ3ZCIsIm5iZiI6MTUyMTUzNDQ1NywiZXhwIjoxNTIxNTM1NjU3LCJpYXQiOjE1MjE1MzQ0NTcsImlzcyI6Imlzc3VlciIsImF1ZCI6ImF1ZGllbmNlIn0.d8vtLDfJaBNsKV1dg5fO0K3raaY7n_bPuqrrFO7JiV0WRPdoGVXsE6pB9pWOVmB0JKm-QnJD-iuJE9Y4V6TR_1oVu0ETdwVFQGtq1-c5vRmUTkHgJN24ArhY-PKqonz0hzciQOXNcwtgmM8D9sldMpRv-4uKa2g_jZasn9w3cgkL8MHX92B3WfZs7ZNEKGBAKNadVqqSF1B5qAtcnFx8jgYjQd9SS0jyX_JKgHilzqRwGcLqrzD6Vt6PPhvPqO71EJwzumtYaSXISOAOlwWn5nDDOGObhnqyPzB4hAZ4JRghpDWzLNCi4T1dbC9MzxBL0xJ2pRg6MFYXPgH4gRJJ9g"
					}
				],
				"body": {
					"mode": "raw",
					"raw": "{\n\tproductItems: [\n\t\t{ productId: 1, quantity: 2 },\n\t\t{ productId: 2, quantity: 1 }\n\t]\n}"
				},
				"url": {
					"raw": "localhost:5000/api/1.0/baskets/1",
					"host": [
						"localhost"
					],
					"port": "5000",
					"path": [
						"api",
						"1.0",
						"baskets",
						"1"
					]
				}
			},
			"response": []
		},
		{
			"name": "localhost:5000/api/1.0/baskets/1",
			"request": {
				"method": "DELETE",
				"header": [],
				"body": {},
				"url": {
					"raw": "localhost:5000/api/1.0/baskets/1",
					"host": [
						"localhost"
					],
					"port": "5000",
					"path": [
						"api",
						"1.0",
						"baskets",
						"1"
					]
				}
			},
			"response": []
		},
		{
			"name": "localhost:5000/api/1.0/tokens",
			"request": {
				"method": "POST",
				"header": [],
				"body": {},
				"url": {
					"raw": "localhost:5000/api/1.0/tokens",
					"host": [
						"localhost"
					],
					"port": "5000",
					"path": [
						"api",
						"1.0",
						"tokens"
					]
				}
			},
			"response": []
		}
	]
}